<?xml version="1.0" encoding="utf-8" ?>
<!DOCTYPE svg PUBLIC "-//W3C//DTD SVG 1.1//EN" "http://www.w3.org/Graphics/SVG/1.1/DTD/svg11.dtd">
<svg height="479" version="1.1" width="526" xmlns="http://www.w3.org/2000/svg">
<rect fill="#ffffff" height="67" stroke="#ffffff" stroke-width="1" width="66" x="446" y="398"/>
<rect fill="none" height="67" stroke="#000000" stroke-width="1" width="66" x="446" y="398"/>
<text font-family="Dialog" font-size="12" x="457" y="411">
PSPipe</text>
<rect fill="#000000" height="1" stroke="#000000" stroke-width="1" width="66" x="446" y="421"/>
<rect fill="#000000" height="1" stroke="#000000" stroke-width="1" width="66" x="446" y="442"/>
<rect fill="#ffffff" height="66" stroke="#ffffff" stroke-width="1" width="66" x="326" y="398"/>
<rect fill="none" height="66" stroke="#000000" stroke-width="1" width="66" x="326" y="398"/>
<text font-family="Dialog" font-size="12" x="334" y="411">
PSValve</text>
<rect fill="#000000" height="1" stroke="#000000" stroke-width="1" width="66" x="326" y="421"/>
<rect fill="#000000" height="1" stroke="#000000" stroke-width="1" width="66" x="326" y="442"/>
<rect fill="#ffffff" height="66" stroke="#ffffff" stroke-width="1" width="71" x="230" y="398"/>
<rect fill="none" height="66" stroke="#000000" stroke-width="1" width="71" x="230" y="398"/>
<text font-family="Dialog" font-size="12" x="235" y="411">
PSModule</text>
<rect fill="#000000" height="1" stroke="#000000" stroke-width="1" width="71" x="230" y="421"/>
<rect fill="#000000" height="1" stroke="#000000" stroke-width="1" width="71" x="230" y="442"/>
<rect fill="#ffffff" height="152" stroke="#ffffff" stroke-width="1" width="139" x="14" y="214"/>
<rect fill="none" height="152" stroke="#000000" stroke-width="1" width="139" x="14" y="214"/>
<text font-family="Dialog" font-size="12" x="60" y="227">
PSDock</text>
<rect fill="#000000" height="1" stroke="#000000" stroke-width="1" width="139" x="14" y="237"/>
<text font-family="Dialog" font-size="12" x="18" y="251">
status</text>
<text font-family="Dialog" font-size="12" x="18" y="267">
width</text>
<text font-family="Dialog" font-size="12" x="18" y="283">
depth</text>
<text font-family="Dialog" font-size="12" x="18" y="299">
position</text>
<text font-family="Dialog" font-size="12" x="18" y="315">
parentGeometry</text>
<rect fill="#000000" height="1" stroke="#000000" stroke-width="1" width="139" x="14" y="325"/>
<text font-family="Dialog" font-size="12" x="18" y="339">
moveToPos()</text>
<text font-family="Dialog" font-size="12" x="18" y="355">
updateAppearence()</text>
<rect fill="#ffffff" height="133" stroke="#ffffff" stroke-width="1" width="154" x="342" y="14"/>
<rect fill="none" height="133" stroke="#000000" stroke-width="1" width="154" x="342" y="14"/>
<text font-family="Dialog" font-size="12" x="379" y="27">
PSPuzzleItem</text>
<rect fill="#000000" height="1" stroke="#000000" stroke-width="1" width="154" x="342" y="37"/>
<rect fill="#000000" height="1" stroke="#000000" stroke-width="1" width="154" x="342" y="66"/>
<text font-family="Dialog" font-size="12" x="346" y="80">
_defineGeometry()</text>
<text font-family="Dialog" font-size="12" x="346" y="96">
_initConnectability()</text>
<text font-family="Dialog" font-size="12" x="346" y="112">
freeConnectionPoint()</text>
<text font-family="Dialog" font-size="12" x="346" y="128">
blockConnectionPoint()</text>
<rect fill="#ffffff" height="149" stroke="#ffffff" stroke-width="1" width="160" x="230" y="214"/>
<rect fill="none" height="149" stroke="#000000" stroke-width="1" width="160" x="230" y="214"/>
<text font-family="Dialog" font-size="12" x="254" y="227">
PSPuzzleDockItem</text>
<rect fill="#000000" height="1" stroke="#000000" stroke-width="1" width="160" x="230" y="237"/>
<rect fill="#000000" height="1" stroke="#000000" stroke-width="1" width="160" x="230" y="258"/>
<text font-family="Dialog" font-size="12" x="234" y="272">
_defineDockGeometry()</text>
<text font-family="Dialog" font-size="12" x="234" y="288">
_newDock()</text>
<text font-family="Dialog" font-size="12" x="234" y="304">
_updateFreePositions()</text>
<text font-family="Dialog" font-size="12" x="234" y="320">
_requestDockAt()</text>
<text font-family="Dialog" font-size="12" x="234" y="336">
freeConnectionPoint()</text>
<text font-family="Dialog" font-size="12" x="234" y="352">
blockConnectionPoint()</text>
<polyline fill="none" points="470,398 470,146" stroke="#000000" stroke-width="1"/>
<polygon fill="#ffffff" points="470,146 477,158 463,158" stroke="#ffffff" stroke-width="1"/>
<polygon fill="none" points="470,146 477,158 463,158" stroke="#000000" stroke-width="1"/>
<polyline fill="none" points="358,398 358,362" stroke="#000000" stroke-width="1"/>
<polygon fill="#ffffff" points="358,362 365,374 351,374" stroke="#ffffff" stroke-width="1"/>
<polygon fill="none" points="358,362 365,374 351,374" stroke="#000000" stroke-width="1"/>
<polyline fill="none" points="270,398 270,362" stroke="#000000" stroke-width="1"/>
<polygon fill="#ffffff" points="270,362 277,374 263,374" stroke="#ffffff" stroke-width="1"/>
<polygon fill="none" points="270,362 277,374 263,374" stroke="#000000" stroke-width="1"/>
<polyline fill="none" points="366,214 366,146" stroke="#000000" stroke-width="1"/>
<polygon fill="#ffffff" points="366,146 373,158 359,158" stroke="#ffffff" stroke-width="1"/>
<polygon fill="none" points="366,146 373,158 359,158" stroke="#000000" stroke-width="1"/>
<polyline fill="none" points="230,254 152,254" stroke="#000000" stroke-width="1"/>
<polygon fill="#ffffff" points="230,254 220,259 210,254 220,249" stroke="#ffffff" stroke-width="1"/>
<polygon fill="none" points="230,254 220,259 210,254 220,249" stroke="#000000" stroke-width="1"/>
<line fill="#000000" stroke="#000000" stroke-width="1" x1="164" x2="152" y1="247" y2="254"/>
<line fill="#000000" stroke="#000000" stroke-width="1" x1="164" x2="152" y1="261" y2="254"/>
</svg>
